<?xml version="1.0" standalone="no"?>
<!DOCTYPE svg PUBLIC "-//W3C//DTD SVG 20010904//EN"
 "http://www.w3.org/TR/2001/REC-SVG-20010904/DTD/svg10.dtd">
<svg version="1.0" xmlns="http://www.w3.org/2000/svg"
 width="687.000000pt" height="687.000000pt" viewBox="0 0 687.000000 687.000000"
 preserveAspectRatio="xMidYMid meet">
<metadata>
Created by potrace 1.14, written by Peter Selinger 2001-2017
</metadata>
<g transform="translate(0.000000,687.000000) scale(0.100000,-0.100000)"
fill="#000000" stroke="none">
<path d="M2416 6593 c-2 -3 -28 -6 -58 -8 -29 -2 -64 -6 -78 -9 -14 -3 -41 -9
-60 -13 -45 -9 -48 -10 -57 -13 -5 -2 -12 -4 -18 -5 -5 -1 -23 -7 -40 -14 -16
-7 -38 -13 -47 -14 -10 -1 -18 -5 -18 -9 0 -4 -9 -8 -19 -8 -11 0 -22 -4 -26
-10 -3 -5 -13 -6 -22 -3 -9 4 -14 2 -10 -3 6 -10 -59 -40 -75 -36 -5 1 -8 -2
-8 -7 0 -8 -53 -34 -65 -32 -3 1 -15 -8 -27 -19 -21 -20 -33 -24 -53 -20 -5 1
-7 -2 -2 -6 8 -8 -72 -60 -86 -56 -5 1 -6 -1 -3 -6 3 -5 -6 -14 -19 -20 -14
-7 -25 -16 -25 -22 0 -5 -5 -10 -10 -10 -5 0 -19 -9 -30 -20 -11 -11 -17 -20
-12 -20 4 0 -6 -9 -21 -19 -16 -10 -28 -21 -28 -25 1 -3 -13 -19 -29 -35 -17
-15 -30 -33 -30 -40 0 -6 -7 -14 -15 -17 -8 -4 -13 -9 -10 -13 2 -4 -6 -18
-18 -32 -12 -14 -23 -31 -25 -39 -2 -8 -8 -17 -13 -18 -5 -2 -7 -7 -4 -12 3
-5 -2 -16 -11 -24 -8 -9 -12 -16 -9 -16 4 0 0 -11 -9 -25 -9 -14 -14 -25 -11
-25 3 0 -1 -13 -10 -30 -9 -16 -13 -30 -10 -30 3 0 -1 -13 -10 -30 -9 -16 -13
-30 -9 -30 4 0 1 -6 -5 -13 -6 -8 -9 -16 -6 -18 2 -3 0 -21 -5 -40 -19 -73
-24 -151 -23 -339 1 -107 4 -211 7 -230 12 -88 21 -151 30 -195 3 -16 10 -55
16 -85 6 -30 17 -80 25 -110 8 -30 12 -56 10 -59 -3 -2 -1 -9 5 -15 5 -7 12
-27 15 -46 9 -46 13 -64 15 -67 2 -2 4 -7 5 -13 1 -5 3 -11 4 -12 2 -2 4 -13
7 -25 2 -12 10 -41 18 -64 8 -24 13 -46 10 -51 -3 -4 0 -8 6 -8 7 0 10 -6 7
-14 -3 -7 -2 -17 2 -22 7 -8 42 -116 45 -139 0 -5 4 -12 8 -15 7 -6 19 -52 21
-82 1 -10 5 -18 9 -18 4 0 8 -8 8 -18 0 -11 7 -33 16 -50 8 -18 13 -36 9 -42
-3 -5 -1 -10 5 -10 7 0 10 -7 6 -15 -3 -8 -1 -15 4 -15 6 0 9 -3 9 -7 -1 -5 0
-11 1 -15 1 -5 3 -11 5 -15 1 -5 7 -21 13 -36 7 -16 10 -33 6 -38 -3 -5 -1 -9
4 -9 8 0 27 -59 37 -115 2 -11 4 -20 5 -20 2 0 10 -35 15 -62 2 -12 5 -26 8
-30 8 -13 19 -91 22 -158 2 -33 4 -62 5 -65 3 -8 0 -117 -4 -200 -3 -41 -7
-127 -10 -190 -4 -63 -9 -131 -11 -150 -3 -19 -8 -66 -10 -105 -3 -38 -7 -99
-10 -135 -22 -292 -23 -719 -1 -845 8 -47 18 -108 20 -130 2 -11 6 -27 9 -35
4 -8 8 -26 9 -40 2 -14 7 -31 11 -37 5 -7 5 -17 2 -23 -3 -5 -1 -10 6 -10 6 0
9 -8 6 -20 -3 -11 0 -20 6 -20 6 0 8 -3 4 -6 -3 -4 0 -19 8 -34 8 -15 11 -30
8 -34 -4 -3 -1 -6 6 -6 8 0 11 -7 7 -15 -3 -8 -2 -15 3 -15 5 0 12 -10 16 -23
4 -12 8 -24 9 -27 1 -3 14 -29 28 -58 15 -28 24 -52 21 -52 -3 0 1 -8 10 -18
10 -10 14 -22 10 -25 -3 -4 -1 -7 5 -7 7 0 12 -5 12 -11 0 -6 9 -22 20 -36 11
-14 18 -29 15 -33 -3 -4 2 -10 10 -14 8 -3 15 -12 15 -19 0 -8 7 -20 15 -27 8
-7 15 -21 15 -31 0 -10 9 -23 21 -29 11 -7 18 -14 15 -17 -3 -3 5 -14 17 -24
12 -10 18 -18 13 -19 -5 0 3 -11 17 -24 14 -13 23 -27 20 -30 -4 -3 0 -6 7 -6
7 0 11 -3 7 -6 -3 -3 8 -20 24 -37 62 -65 74 -79 59 -71 -8 4 5 -12 30 -37 25
-25 88 -89 140 -142 52 -53 101 -97 108 -97 7 0 11 -3 9 -7 -5 -10 24 -37 44
-41 7 -2 17 -9 21 -15 4 -7 8 -8 8 -3 0 5 6 3 13 -3 8 -6 17 -8 20 -4 4 3 7 2
7 -4 0 -5 16 -9 35 -8 19 1 35 -1 35 -5 0 -4 24 -3 53 1 28 3 55 5 60 2 4 -2
7 1 7 8 0 7 3 9 7 6 3 -4 12 -2 20 4 7 6 13 9 13 5 0 -3 9 2 20 12 12 9 22 15
23 12 4 -6 45 38 67 70 8 13 20 28 27 35 7 7 9 15 6 19 -4 3 -1 6 5 6 6 0 9 7
6 15 -4 8 -2 15 4 15 5 0 10 10 11 23 3 94 -1 144 -14 207 -7 32 -15 93 -20
145 -2 22 -5 40 -6 40 0 0 -3 20 -5 45 -1 25 -5 70 -8 100 -16 160 -28 595
-17 606 3 2 6 28 7 57 3 63 12 154 18 183 5 24 16 89 20 119 8 54 30 135 38
135 4 0 7 3 6 7 -3 15 14 83 21 83 4 0 7 10 8 22 1 11 7 24 14 28 6 4 9 12 5
18 -3 6 2 18 11 28 10 10 16 19 14 21 -7 7 22 73 31 73 5 0 6 5 3 10 -3 6 -1
10 4 10 6 0 10 3 10 7 -3 15 23 73 32 73 5 0 9 7 9 15 0 8 4 15 10 15 5 0 9 3
8 8 -4 11 42 82 53 82 6 0 7 5 4 10 -3 6 1 13 9 16 9 3 14 9 11 13 -2 4 15 28
39 54 24 25 41 48 38 51 -3 3 2 6 10 6 9 0 22 8 29 17 12 14 12 16 -1 9 -8 -4
5 10 30 32 25 22 48 38 52 36 4 -2 11 3 16 11 7 13 22 2 85 -58 42 -41 74 -77
70 -80 -3 -4 2 -7 12 -7 10 0 16 -3 12 -6 -5 -5 2 -14 48 -65 8 -9 15 -21 15
-27 0 -7 3 -12 8 -12 7 0 42 -56 41 -67 0 -3 3 -9 8 -12 15 -10 55 -81 46 -81
-4 0 -3 -4 2 -8 17 -12 82 -146 78 -159 -3 -7 0 -13 6 -13 6 0 11 -8 11 -18 0
-10 5 -23 12 -30 7 -7 8 -12 4 -12 -5 0 -3 -7 4 -15 7 -8 9 -15 5 -15 -4 0 -2
-7 5 -15 7 -8 10 -15 6 -15 -4 0 1 -14 9 -31 9 -17 14 -33 11 -36 -3 -3 0 -15
6 -27 7 -11 13 -30 13 -41 1 -11 7 -43 14 -72 7 -29 10 -56 7 -62 -4 -5 -2
-12 3 -16 6 -3 10 -18 9 -33 0 -15 3 -49 6 -77 10 -78 18 -251 17 -350 -2 -92
-2 -106 0 -127 0 -7 -2 -40 -5 -73 -4 -33 -8 -96 -11 -140 -4 -71 -7 -101 -20
-205 -1 -14 -6 -59 -10 -100 -4 -41 -9 -79 -13 -84 -14 -23 -23 -196 -10 -196
5 0 8 -6 6 -12 -1 -7 3 -23 10 -35 7 -13 10 -23 7 -23 -4 0 1 -7 9 -16 9 -8
13 -20 10 -26 -4 -6 -3 -9 2 -6 5 4 20 -9 34 -27 52 -70 187 -112 285 -91 48
11 49 11 71 24 12 6 25 8 29 4 5 -4 5 -1 1 6 -7 11 5 17 27 13 5 -1 6 3 2 9
-3 5 -2 10 3 10 4 0 19 10 32 23 14 12 28 21 33 19 5 -1 6 1 4 5 -7 11 19 34
28 25 4 -4 5 -2 3 3 -1 6 31 44 72 86 41 43 81 86 89 97 8 12 19 18 24 15 6
-3 7 -1 3 5 -3 6 6 20 20 31 15 12 23 21 19 21 -5 0 2 8 13 19 12 10 22 22 22
27 0 5 9 16 19 24 11 7 18 17 15 21 -2 4 6 15 18 23 12 9 18 16 13 16 -5 0 1
9 13 20 12 12 22 24 22 29 0 4 9 17 20 29 12 12 18 22 15 22 -4 0 0 7 7 15 31
34 36 43 31 49 -4 3 -1 6 6 6 7 0 10 4 7 9 -3 5 1 14 9 21 8 7 15 17 15 23 0
5 8 16 18 24 9 8 11 11 4 8 -11 -6 -12 -3 -3 14 7 11 16 21 21 21 5 0 6 7 3
17 -5 12 -3 14 7 8 8 -5 11 -4 7 3 -9 14 3 43 14 36 5 -3 6 2 3 10 -3 9 -1 16
5 16 6 0 10 3 9 8 -1 4 6 25 15 46 10 22 20 50 23 63 4 13 9 23 13 23 4 0 8
12 9 26 1 14 5 31 9 37 4 7 8 15 9 20 1 4 2 8 4 10 1 1 3 9 5 17 2 8 9 33 15
55 16 59 19 75 25 120 4 22 8 54 11 70 29 166 34 539 10 795 -3 25 -7 90 -10
145 -3 55 -8 118 -11 140 -5 41 -13 164 -20 295 -2 41 -4 77 -5 80 -1 3 -1 68
-1 145 1 170 4 205 31 305 7 25 13 52 15 60 8 39 38 136 46 146 5 6 6 14 2 17
-3 4 -1 12 5 19 6 7 11 16 11 21 1 4 1 8 2 10 0 1 2 13 5 26 2 14 9 30 15 38
6 7 9 13 6 13 -3 0 3 24 13 53 10 28 20 61 22 72 1 11 7 23 12 27 5 3 10 14
11 25 4 35 29 113 36 113 4 0 8 8 8 18 1 38 5 52 13 52 5 0 6 5 3 10 -3 6 -3
16 2 23 4 6 9 23 11 37 2 13 6 27 10 30 8 5 14 27 15 48 0 6 3 12 7 12 3 0 6
8 7 18 1 18 10 57 13 57 1 0 3 9 5 20 12 70 18 91 27 96 6 4 8 11 5 16 -4 6
-2 25 4 44 12 39 20 77 22 102 1 9 5 17 9 17 4 0 5 7 2 15 -3 8 -2 19 2 26 4
7 8 24 10 38 1 14 5 35 7 46 3 11 8 54 12 95 4 41 9 84 12 95 7 27 9 375 3
375 -3 0 -6 17 -7 38 -1 20 -4 51 -8 67 -4 17 -8 39 -9 50 -2 11 -6 27 -10 36
-4 9 -8 27 -10 41 -1 13 -6 29 -10 36 -4 7 -4 12 1 12 4 0 2 4 -4 8 -7 5 -14
20 -15 35 -1 15 -6 27 -10 27 -6 0 -18 26 -24 53 -1 4 -3 9 -4 12 -1 3 -3 10
-4 15 0 6 -8 15 -16 20 -8 5 -11 10 -7 10 4 0 -1 10 -13 22 -11 12 -20 27 -20
33 0 7 -9 20 -20 30 -11 10 -20 22 -20 26 0 5 -14 22 -31 39 -18 16 -28 30
-24 30 4 0 -12 17 -36 38 -24 20 -51 45 -61 55 -10 9 -20 17 -23 17 -6 0 -20
11 -50 38 -7 6 -18 12 -24 12 -5 0 -14 6 -18 14 -4 8 -12 15 -16 15 -4 0 -25
10 -45 22 -64 39 -80 47 -86 41 -3 -3 -6 0 -6 6 0 10 -38 28 -52 24 -5 -1 -8
2 -8 8 0 6 -3 9 -7 8 -5 -1 -20 4 -35 10 -16 7 -40 17 -55 24 -16 6 -37 13
-48 15 -10 2 -23 9 -27 16 -4 6 -8 9 -8 5 0 -4 -15 -2 -32 3 -18 6 -44 12 -58
15 -14 3 -34 8 -45 11 -72 24 -340 34 -450 17 -22 -3 -53 -7 -70 -9 -16 -2
-30 -4 -30 -5 0 -2 -36 -11 -60 -14 -11 -2 -33 -8 -48 -15 -16 -6 -33 -9 -38
-5 -5 3 -9 0 -9 -6 0 -7 -7 -10 -15 -6 -8 3 -15 1 -15 -5 0 -5 -6 -9 -12 -8
-7 1 -29 -5 -48 -14 -19 -8 -38 -13 -42 -11 -5 3 -8 1 -8 -4 0 -6 -7 -13 -16
-16 -10 -4 -13 -2 -8 7 4 6 -1 5 -12 -4 -18 -16 -65 -35 -73 -30 -2 2 -7 -2
-11 -9 -4 -6 -13 -13 -21 -14 -16 -3 -36 -11 -98 -37 -24 -10 -47 -16 -52 -13
-5 3 -9 1 -9 -5 0 -5 -9 -8 -20 -6 -11 2 -22 -1 -26 -6 -4 -6 -11 -6 -20 2 -8
6 -14 9 -14 5 0 -4 -13 0 -30 9 -16 8 -31 15 -32 14 -7 -5 -78 26 -78 33 0 4
-3 7 -7 7 -23 -4 -43 3 -59 19 -10 9 -19 16 -21 14 -7 -7 -63 10 -63 19 0 6
-4 8 -8 5 -5 -3 -20 1 -35 9 -14 7 -28 11 -31 7 -3 -3 -6 0 -6 6 0 7 -3 11 -7
10 -5 -1 -26 4 -48 10 -22 6 -44 12 -50 13 -5 0 -26 7 -45 15 -19 8 -36 15
-37 15 -2 -1 -4 -1 -5 0 -7 2 -99 17 -158 25 -53 7 -258 13 -264 7z m2194
-375 c0 -4 7 -5 15 -2 8 4 15 1 15 -6 0 -6 4 -8 10 -5 11 7 90 -32 108 -54 10
-12 12 -12 6 -1 -13 28 109 -89 153 -145 12 -16 19 -33 16 -38 -3 -6 -2 -7 4
-4 10 6 60 -71 55 -85 -1 -5 2 -8 7 -8 7 0 18 -24 20 -46 0 -2 7 -12 16 -20 8
-9 15 -21 15 -29 0 -7 4 -15 10 -17 5 -1 11 -15 12 -30 1 -16 6 -28 9 -28 7 0
27 -50 33 -83 2 -7 8 -25 15 -40 6 -16 9 -32 6 -37 -3 -5 -1 -10 4 -12 6 -1
12 -14 14 -28 2 -14 6 -32 9 -40 9 -23 27 -101 33 -140 2 -19 7 -46 10 -60 19
-93 27 -385 12 -475 -16 -99 -45 -195 -60 -195 -6 0 -8 -3 -4 -6 9 -10 -20
-61 -45 -78 -12 -9 -18 -16 -13 -16 5 0 -1 -7 -13 -16 -27 -18 -32 -16 -36 17
-1 13 -5 31 -9 39 -3 8 -8 26 -9 40 -2 14 -7 30 -10 36 -4 6 -9 21 -12 35 -2
13 -11 43 -20 67 -8 23 -12 42 -8 42 4 0 1 4 -6 9 -7 4 -14 18 -15 29 -1 12
-5 22 -10 22 -4 0 -6 4 -2 9 3 5 1 12 -5 16 -6 4 -8 11 -5 16 4 5 2 9 -3 9 -9
0 -24 40 -21 56 0 4 -4 10 -11 14 -6 4 -12 14 -14 22 -1 8 -9 26 -17 39 -9 13
-26 45 -38 71 -13 27 -27 50 -32 54 -5 3 -7 10 -4 15 4 5 2 9 -4 9 -8 0 -25
36 -23 50 0 3 -6 9 -14 13 -9 5 -18 16 -22 25 -4 10 -28 48 -52 87 -25 38 -44
73 -42 78 1 5 -1 6 -6 3 -5 -3 -17 9 -27 26 -10 17 -24 39 -31 47 -53 66 -113
151 -107 151 4 0 -3 7 -15 16 -12 8 -22 20 -22 25 0 5 -9 19 -20 31 -10 12
-16 26 -13 32 3 6 3 8 -2 4 -9 -8 -42 31 -37 45 1 4 -2 7 -8 7 -13 0 -41 56
-32 65 4 5 2 5 -5 1 -11 -6 -30 29 -25 47 1 4 -2 7 -6 7 -16 0 -40 66 -47 125
-5 44 40 125 70 125 6 0 21 9 33 20 12 12 22 18 22 16 0 -3 12 -1 28 5 75 31
222 48 222 27z"/>
</g>
</svg>
